{
    "results": [
        {
            "id": 19558,
            "url": "http://netbox/api/ipam/ip-addresses/19558/",
            "display": "10.4.132.1/24",
            "address": "10.4.132.1/24",
            "status": {
                "value": "active",
                "label": "Active"
            },
            "assigned_object_type": "dcim.interface",
            "assigned_object_id": 107126,
            "assigned_object": {
                "id": 107126,
                "url": "http://netbox/api/dcim/interfaces/107126/",
                "display": "FastEthernet0/1",
                "device": {
                    "id": 6378,
                    "url": "http://netbox/api/dcim/devices/6378/",
                    "display": "Dept-70",
                    "name": "Dept-70",
                    "display_name": "Dept-70"
                },
                "name": "FastEthernet0/1"
            },
            "dns_name": ""
        },
        {
            "id": 19558,
            "url": "http://netbox/api/ipam/ip-addresses/19558/",
            "display": "10.7.126.1/24",
            "address": "10.7.126.1/24",
            "status": {
                "value": "active",
                "label": "Active"
            },
            "assigned_object_type": "dcim.interface",
            "assigned_object_id": 107126,
            "assigned_object": {
                "id": 107126,
                "url": "http://netbox/api/dcim/interfaces/107126/",
                "display": "FastEthernet0/1",
                "device": {
                    "id": 6378,
                    "url": "http://netbox/api/dcim/devices/6378/",
                    "display": "Dept-70",
                    "name": "Dept-70",
                    "display_name": "Dept-70"
                },
                "name": "FastEthernet0/1"
            },
            "dns_name": ""
        },
        {
            "id": 19558,
            "url": "http://netbox/api/ipam/ip-addresses/19558/",
            "display": "10.9.1.1/24",
            "address": "10.9.1.1/24",
            "status": {
                "value": "active",
                "label": "Active"
            },
            "assigned_object_type": "dcim.interface",
            "assigned_object_id": 107126,
            "assigned_object": {
                "id": 107126,
                "url": "http://netbox/api/dcim/interfaces/107126/",
                "display": "FastEthernet0/1",
                "device": {
                    "id": 6378,
                    "url": "http://netbox/api/dcim/devices/6378/",
                    "display": "Dept-70",
                    "name": "Dept-70",
                    "display_name": "Dept-70"
                },
                "name": "FastEthernet0/1"
            },
            "dns_name": ""
        },
        {
            "id": 19558,
            "url": "http://netbox/api/ipam/ip-addresses/19558/",
            "display": "10.9.2.1/24",
            "address": "10.9.2.1/24",
            "status": {
                "value": "active",
                "label": "Active"
            },
            "assigned_object_type": "dcim.interface",
            "assigned_object_id": 107126,
            "assigned_object": {
                "id": 107126,
                "url": "http://netbox/api/dcim/interfaces/107126/",
                "display": "FastEthernet0/1",
                "device": {
                    "id": 6378,
                    "url": "http://netbox/api/dcim/devices/6378/",
                    "display": "Dept-70",
                    "name": "Dept-70",
                    "display_name": "Dept-70"
                },
                "name": "FastEthernet0/1"
            },
            "dns_name": ""
        },
        {
            "id": 19558,
            "url": "http://netbox/api/ipam/ip-addresses/19558/",
            "display": "10.9.4.1/24",
            "address": "10.9.4.1/24",
            "status": {
                "value": "active",
                "label": "Active"
            },
            "assigned_object_type": "dcim.interface",
            "assigned_object_id": 107126,
            "assigned_object": {
                "id": 107126,
                "url": "http://netbox/api/dcim/interfaces/107126/",
                "display": "FastEthernet0/1",
                "device": {
                    "id": 6378,
                    "url": "http://netbox/api/dcim/devices/6378/",
                    "display": "Dept-70",
                    "name": "Dept-70",
                    "display_name": "Dept-70"
                },
                "name": "FastEthernet0/1"
            },
            "dns_name": ""
        },
        {
            "id": 19558,
            "url": "http://netbox/api/ipam/ip-addresses/19558/",
            "display": "10.9.5.1/24",
            "address": "10.9.5.1/24",
            "status": {
                "value": "active",
                "label": "Active"
            },
            "assigned_object_type": "dcim.interface",
            "assigned_object_id": 107126,
            "assigned_object": {
                "id": 107126,
                "url": "http://netbox/api/dcim/interfaces/107126/",
                "display": "FastEthernet0/1",
                "device": {
                    "id": 6378,
                    "url": "http://netbox/api/dcim/devices/6378/",
                    "display": "Dept-70",
                    "name": "Dept-70",
                    "display_name": "Dept-70"
                },
                "name": "FastEthernet0/1"
            },
            "dns_name": ""
        },
        {
            "id": 19558,
            "url": "http://netbox/api/ipam/ip-addresses/19558/",
            "display": "10.9.6.1/24",
            "address": "10.9.6.1/24",
            "status": {
                "value": "active",
                "label": "Active"
            },
            "assigned_object_type": "dcim.interface",
            "assigned_object_id": 107126,
            "assigned_object": {
                "id": 107126,
                "url": "http://netbox/api/dcim/interfaces/107126/",
                "display": "FastEthernet0/1",
                "device": {
                    "id": 6378,
                    "url": "http://netbox/api/dcim/devices/6378/",
                    "display": "Dept-70",
                    "name": "Dept-70",
                    "display_name": "Dept-70"
                },
                "name": "FastEthernet0/1"
            },
            "dns_name": ""
        },
        {
            "id": 19558,
            "url": "http://netbox/api/ipam/ip-addresses/19558/",
            "display": "10.9.10.1/24",
            "address": "10.9.10.1/24",
            "status": {
                "value": "active",
                "label": "Active"
            },
            "assigned_object_type": "dcim.interface",
            "assigned_object_id": 107126,
            "assigned_object": {
                "id": 107126,
                "url": "http://netbox/api/dcim/interfaces/107126/",
                "display": "FastEthernet0/1",
                "device": {
                    "id": 6378,
                    "url": "http://netbox/api/dcim/devices/6378/",
                    "display": "Dept-70",
                    "name": "Dept-70",
                    "display_name": "Dept-70"
                },
                "name": "FastEthernet0/1"
            },
            "dns_name": ""
        },
        {
            "id": 19558,
            "url": "http://netbox/api/ipam/ip-addresses/19558/",
            "display": "10.9.74.1/24",
            "address": "10.9.74.1/24",
            "status": {
                "value": "active",
                "label": "Active"
            },
            "assigned_object_type": "dcim.interface",
            "assigned_object_id": 107126,
            "assigned_object": {
                "id": 107126,
                "url": "http://netbox/api/dcim/interfaces/107126/",
                "display": "FastEthernet0/1",
                "device": {
                    "id": 6378,
                    "url": "http://netbox/api/dcim/devices/6378/",
                    "display": "Dept-70",
                    "name": "Dept-70",
                    "display_name": "Dept-70"
                },
                "name": "FastEthernet0/1"
            },
            "dns_name": ""
        },
        {
            "id": 19558,
            "url": "http://netbox/api/ipam/ip-addresses/19558/",
            "display": "10.9.101.1/24",
            "address": "10.9.101.1/24",
            "status": {
                "value": "active",
                "label": "Active"
            },
            "assigned_object_type": "dcim.interface",
            "assigned_object_id": 107126,
            "assigned_object": {
                "id": 107126,
                "url": "http://netbox/api/dcim/interfaces/107126/",
                "display": "FastEthernet0/1",
                "device": {
                    "id": 6378,
                    "url": "http://netbox/api/dcim/devices/6378/",
                    "display": "Dept-70",
                    "name": "Dept-70",
                    "display_name": "Dept-70"
                },
                "name": "FastEthernet0/1"
            },
            "dns_name": ""
        },
        {
            "id": 19558,
            "url": "http://netbox/api/ipam/ip-addresses/19558/",
            "display": "10.9.102.1/24",
            "address": "10.9.102.1/24",
            "status": {
                "value": "active",
                "label": "Active"
            },
            "assigned_object_type": "dcim.interface",
            "assigned_object_id": 107126,
            "assigned_object": {
                "id": 107126,
                "url": "http://netbox/api/dcim/interfaces/107126/",
                "display": "FastEthernet0/1",
                "device": {
                    "id": 6378,
                    "url": "http://netbox/api/dcim/devices/6378/",
                    "display": "Dept-70",
                    "name": "Dept-70",
                    "display_name": "Dept-70"
                },
                "name": "FastEthernet0/1"
            },
            "dns_name": ""
        },
        {
            "id": 19558,
            "url": "http://netbox/api/ipam/ip-addresses/19558/",
            "display": "10.9.104.1/24",
            "address": "10.9.104.1/24",
            "status": {
                "value": "active",
                "label": "Active"
            },
            "assigned_object_type": "dcim.interface",
            "assigned_object_id": 107126,
            "assigned_object": {
                "id": 107126,
                "url": "http://netbox/api/dcim/interfaces/107126/",
                "display": "FastEthernet0/1",
                "device": {
                    "id": 6378,
                    "url": "http://netbox/api/dcim/devices/6378/",
                    "display": "Dept-70",
                    "name": "Dept-70",
                    "display_name": "Dept-70"
                },
                "name": "FastEthernet0/1"
            },
            "dns_name": ""
        },
        {
            "id": 19558,
            "url": "http://netbox/api/ipam/ip-addresses/19558/",
            "display": "10.9.125.1/24",
            "address": "10.9.125.1/24",
            "status": {
                "value": "active",
                "label": "Active"
            },
            "assigned_object_type": "dcim.interface",
            "assigned_object_id": 107126,
            "assigned_object": {
                "id": 107126,
                "url": "http://netbox/api/dcim/interfaces/107126/",
                "display": "FastEthernet0/1",
                "device": {
                    "id": 6378,
                    "url": "http://netbox/api/dcim/devices/6378/",
                    "display": "Dept-70",
                    "name": "Dept-70",
                    "display_name": "Dept-70"
                },
                "name": "FastEthernet0/1"
            },
            "dns_name": ""
        },
        {
            "id": 19558,
            "url": "http://netbox/api/ipam/ip-addresses/19558/",
            "display": "10.9.126.1/24",
            "address": "10.9.126.1/24",
            "status": {
                "value": "active",
                "label": "Active"
            },
            "assigned_object_type": "dcim.interface",
            "assigned_object_id": 107126,
            "assigned_object": {
                "id": 107126,
                "url": "http://netbox/api/dcim/interfaces/107126/",
                "display": "FastEthernet0/1",
                "device": {
                    "id": 6378,
                    "url": "http://netbox/api/dcim/devices/6378/",
                    "display": "Dept-70",
                    "name": "Dept-70",
                    "display_name": "Dept-70"
                },
                "name": "FastEthernet0/1"
            },
            "dns_name": ""
        },
        {
            "id": 19558,
            "url": "http://netbox/api/ipam/ip-addresses/19558/",
            "display": "10.9.129.1/24",
            "address": "10.9.129.1/24",
            "status": {
                "value": "active",
                "label": "Active"
            },
            "assigned_object_type": "dcim.interface",
            "assigned_object_id": 107126,
            "assigned_object": {
                "id": 107126,
                "url": "http://netbox/api/dcim/interfaces/107126/",
                "display": "FastEthernet0/1",
                "device": {
                    "id": 6378,
                    "url": "http://netbox/api/dcim/devices/6378/",
                    "display": "Dept-70",
                    "name": "Dept-70",
                    "display_name": "Dept-70"
                },
                "name": "FastEthernet0/1"
            },
            "dns_name": ""
        },
        {
            "id": 19558,
            "url": "http://netbox/api/ipam/ip-addresses/19558/",
            "display": "10.9.151.1/24",
            "address": "10.9.151.1/24",
            "status": {
                "value": "active",
                "label": "Active"
            },
            "assigned_object_type": "dcim.interface",
            "assigned_object_id": 107126,
            "assigned_object": {
                "id": 107126,
                "url": "http://netbox/api/dcim/interfaces/107126/",
                "display": "FastEthernet0/1",
                "device": {
                    "id": 6378,
                    "url": "http://netbox/api/dcim/devices/6378/",
                    "display": "Dept-70",
                    "name": "Dept-70",
                    "display_name": "Dept-70"
                },
                "name": "FastEthernet0/1"
            },
            "dns_name": ""
        },
        {
            "id": 19558,
            "url": "http://netbox/api/ipam/ip-addresses/19558/",
            "display": "10.9.153.1/24",
            "address": "10.9.153.1/24",
            "status": {
                "value": "active",
                "label": "Active"
            },
            "assigned_object_type": "dcim.interface",
            "assigned_object_id": 107126,
            "assigned_object": {
                "id": 107126,
                "url": "http://netbox/api/dcim/interfaces/107126/",
                "display": "FastEthernet0/1",
                "device": {
                    "id": 6378,
                    "url": "http://netbox/api/dcim/devices/6378/",
                    "display": "Dept-70",
                    "name": "Dept-70",
                    "display_name": "Dept-70"
                },
                "name": "FastEthernet0/1"
            },
            "dns_name": ""
        },
        {
            "id": 19558,
            "url": "http://netbox/api/ipam/ip-addresses/19558/",
            "display": "10.9.157.1/24",
            "address": "10.9.157.1/24",
            "status": {
                "value": "active",
                "label": "Active"
            },
            "assigned_object_type": "dcim.interface",
            "assigned_object_id": 107126,
            "assigned_object": {
                "id": 107126,
                "url": "http://netbox/api/dcim/interfaces/107126/",
                "display": "FastEthernet0/1",
                "device": {
                    "id": 6378,
                    "url": "http://netbox/api/dcim/devices/6378/",
                    "display": "Dept-70",
                    "name": "Dept-70",
                    "display_name": "Dept-70"
                },
                "name": "FastEthernet0/1"
            },
            "dns_name": ""
        },
        {
            "id": 19558,
            "url": "http://netbox/api/ipam/ip-addresses/19558/",
            "display": "10.9.167.1/24",
            "address": "10.9.167.1/24",
            "status": {
                "value": "active",
                "label": "Active"
            },
            "assigned_object_type": "dcim.interface",
            "assigned_object_id": 107126,
            "assigned_object": {
                "id": 107126,
                "url": "http://netbox/api/dcim/interfaces/107126/",
                "display": "FastEthernet0/1",
                "device": {
                    "id": 6378,
                    "url": "http://netbox/api/dcim/devices/6378/",
                    "display": "Dept-70",
                    "name": "Dept-70",
                    "display_name": "Dept-70"
                },
                "name": "FastEthernet0/1"
            },
            "dns_name": ""
        },
        {
            "id": 19558,
            "url": "http://netbox/api/ipam/ip-addresses/19558/",
            "display": "10.9.174.1/24",
            "address": "10.9.174.1/24",
            "status": {
                "value": "active",
                "label": "Active"
            },
            "assigned_object_type": "dcim.interface",
            "assigned_object_id": 107126,
            "assigned_object": {
                "id": 107126,
                "url": "http://netbox/api/dcim/interfaces/107126/",
                "display": "FastEthernet0/1",
                "device": {
                    "id": 6378,
                    "url": "http://netbox/api/dcim/devices/6378/",
                    "display": "Dept-70",
                    "name": "Dept-70",
                    "display_name": "Dept-70"
                },
                "name": "FastEthernet0/1"
            },
            "dns_name": ""
        },
        {
            "id": 19558,
            "url": "http://netbox/api/ipam/ip-addresses/19558/",
            "display": "10.10.200.1/24",
            "address": "10.10.200.1/24",
            "status": {
                "value": "active",
                "label": "Active"
            },
            "assigned_object_type": "dcim.interface",
            "assigned_object_id": 107126,
            "assigned_object": {
                "id": 107126,
                "url": "http://netbox/api/dcim/interfaces/107126/",
                "display": "FastEthernet0/1",
                "device": {
                    "id": 6378,
                    "url": "http://netbox/api/dcim/devices/6378/",
                    "display": "Dept-70",
                    "name": "Dept-70",
                    "display_name": "Dept-70"
                },
                "name": "FastEthernet0/1"
            },
            "dns_name": ""
        },
        {
            "id": 19558,
            "url": "http://netbox/api/ipam/ip-addresses/19558/",
            "display": "10.10.254.1/24",
            "address": "10.10.254.1/24",
            "status": {
                "value": "active",
                "label": "Active"
            },
            "assigned_object_type": "dcim.interface",
            "assigned_object_id": 107126,
            "assigned_object": {
                "id": 107126,
                "url": "http://netbox/api/dcim/interfaces/107126/",
                "display": "FastEthernet0/1",
                "device": {
                    "id": 6378,
                    "url": "http://netbox/api/dcim/devices/6378/",
                    "display": "Dept-70",
                    "name": "Dept-70",
                    "display_name": "Dept-70"
                },
                "name": "FastEthernet0/1"
            },
            "dns_name": ""
        },
        {
            "id": 19558,
            "url": "http://netbox/api/ipam/ip-addresses/19558/",
            "display": "192.168.1.1/24",
            "address": "192.168.1.1/24",
            "status": {
                "value": "active",
                "label": "Active"
            },
            "assigned_object_type": "dcim.interface",
            "assigned_object_id": 107126,
            "assigned_object": {
                "id": 107126,
                "url": "http://netbox/api/dcim/interfaces/107126/",
                "display": "FastEthernet0/1",
                "device": {
                    "id": 6378,
                    "url": "http://netbox/api/dcim/devices/6378/",
                    "display": "Dept-70",
                    "name": "Dept-70",
                    "display_name": "Dept-70"
                },
                "name": "FastEthernet0/1"
            },
            "dns_name": ""
        },
        {
            "id": 19558,
            "url": "http://netbox/api/ipam/ip-addresses/19558/",
            "display": "192.168.2.1/24",
            "address": "192.168.2.1/24",
            "status": {
                "value": "active",
                "label": "Active"
            },
            "assigned_object_type": "dcim.interface",
            "assigned_object_id": 107126,
            "assigned_object": {
                "id": 107126,
                "url": "http://netbox/api/dcim/interfaces/107126/",
                "display": "FastEthernet0/1",
                "device": {
                    "id": 6378,
                    "url": "http://netbox/api/dcim/devices/6378/",
                    "display": "Dept-70",
                    "name": "Dept-70",
                    "display_name": "Dept-70"
                },
                "name": "FastEthernet0/1"
            },
            "dns_name": ""
        },
        {
            "id": 19558,
            "url": "http://netbox/api/ipam/ip-addresses/19558/",
            "display": "192.168.5.1/24",
            "address": "192.168.5.1/24",
            "status": {
                "value": "active",
                "label": "Active"
            },
            "assigned_object_type": "dcim.interface",
            "assigned_object_id": 107126,
            "assigned_object": {
                "id": 107126,
                "url": "http://netbox/api/dcim/interfaces/107126/",
                "display": "FastEthernet0/1",
                "device": {
                    "id": 6378,
                    "url": "http://netbox/api/dcim/devices/6378/",
                    "display": "Dept-70",
                    "name": "Dept-70",
                    "display_name": "Dept-70"
                },
                "name": "FastEthernet0/1"
            },
            "dns_name": ""
        },
        {
            "id": 19558,
            "url": "http://netbox/api/ipam/ip-addresses/19558/",
            "display": "192.168.7.1/24",
            "address": "192.168.7.1/24",
            "status": {
                "value": "active",
                "label": "Active"
            },
            "assigned_object_type": "dcim.interface",
            "assigned_object_id": 107126,
            "assigned_object": {
                "id": 107126,
                "url": "http://netbox/api/dcim/interfaces/107126/",
                "display": "FastEthernet0/1",
                "device": {
                    "id": 6378,
                    "url": "http://netbox/api/dcim/devices/6378/",
                    "display": "Dept-70",
                    "name": "Dept-70",
                    "display_name": "Dept-70"
                },
                "name": "FastEthernet0/1"
            },
            "dns_name": ""
        },
        {
            "id": 19558,
            "url": "http://netbox/api/ipam/ip-addresses/19558/",
            "display": "192.168.8.1/24",
            "address": "192.168.8.1/24",
            "status": {
                "value": "active",
                "label": "Active"
            },
            "assigned_object_type": "dcim.interface",
            "assigned_object_id": 107126,
            "assigned_object": {
                "id": 107126,
                "url": "http://netbox/api/dcim/interfaces/107126/",
                "display": "FastEthernet0/1",
                "device": {
                    "id": 6378,
                    "url": "http://netbox/api/dcim/devices/6378/",
                    "display": "Dept-70",
                    "name": "Dept-70",
                    "display_name": "Dept-70"
                },
                "name": "FastEthernet0/1"
            },
            "dns_name": ""
        },
        {
            "id": 19558,
            "url": "http://netbox/api/ipam/ip-addresses/19558/",
            "display": "192.168.9.1/24",
            "address": "192.168.9.1/24",
            "status": {
                "value": "active",
                "label": "Active"
            },
            "assigned_object_type": "dcim.interface",
            "assigned_object_id": 107126,
            "assigned_object": {
                "id": 107126,
                "url": "http://netbox/api/dcim/interfaces/107126/",
                "display": "FastEthernet0/1",
                "device": {
                    "id": 6378,
                    "url": "http://netbox/api/dcim/devices/6378/",
                    "display": "Dept-70",
                    "name": "Dept-70",
                    "display_name": "Dept-70"
                },
                "name": "FastEthernet0/1"
            },
            "dns_name": ""
        },
        {
            "id": 19558,
            "url": "http://netbox/api/ipam/ip-addresses/19558/",
            "display": "192.168.10.1/24",
            "address": "192.168.10.1/24",
            "status": {
                "value": "active",
                "label": "Active"
            },
            "assigned_object_type": "dcim.interface",
            "assigned_object_id": 107126,
            "assigned_object": {
                "id": 107126,
                "url": "http://netbox/api/dcim/interfaces/107126/",
                "display": "FastEthernet0/1",
                "device": {
                    "id": 6378,
                    "url": "http://netbox/api/dcim/devices/6378/",
                    "display": "Dept-70",
                    "name": "Dept-70",
                    "display_name": "Dept-70"
                },
                "name": "FastEthernet0/1"
            },
            "dns_name": ""
        },
        {
            "id": 19558,
            "url": "http://netbox/api/ipam/ip-addresses/19558/",
            "display": "192.168.11.1/24",
            "address": "192.168.11.1/24",
            "status": {
                "value": "active",
                "label": "Active"
            },
            "assigned_object_type": "dcim.interface",
            "assigned_object_id": 107126,
            "assigned_object": {
                "id": 107126,
                "url": "http://netbox/api/dcim/interfaces/107126/",
                "display": "FastEthernet0/1",
                "device": {
                    "id": 6378,
                    "url": "http://netbox/api/dcim/devices/6378/",
                    "display": "Dept-70",
                    "name": "Dept-70",
                    "display_name": "Dept-70"
                },
                "name": "FastEthernet0/1"
            },
            "dns_name": ""
        },
        {
            "id": 19558,
            "url": "http://netbox/api/ipam/ip-addresses/19558/",
            "display": "192.168.20.1/24",
            "address": "192.168.20.1/24",
            "status": {
                "value": "active",
                "label": "Active"
            },
            "assigned_object_type": "dcim.interface",
            "assigned_object_id": 107126,
            "assigned_object": {
                "id": 107126,
                "url": "http://netbox/api/dcim/interfaces/107126/",
                "display": "FastEthernet0/1",
                "device": {
                    "id": 6378,
                    "url": "http://netbox/api/dcim/devices/6378/",
                    "display": "Dept-70",
                    "name": "Dept-70",
                    "display_name": "Dept-70"
                },
                "name": "FastEthernet0/1"
            },
            "dns_name": ""
        },
        {
            "id": 19558,
            "url": "http://netbox/api/ipam/ip-addresses/19558/",
            "display": "192.168.21.1/24",
            "address": "192.168.21.1/24",
            "status": {
                "value": "active",
                "label": "Active"
            },
            "assigned_object_type": "dcim.interface",
            "assigned_object_id": 107126,
            "assigned_object": {
                "id": 107126,
                "url": "http://netbox/api/dcim/interfaces/107126/",
                "display": "FastEthernet0/1",
                "device": {
                    "id": 6378,
                    "url": "http://netbox/api/dcim/devices/6378/",
                    "display": "Dept-70",
                    "name": "Dept-70",
                    "display_name": "Dept-70"
                },
                "name": "FastEthernet0/1"
            },
            "dns_name": ""
        },
        {
            "id": 19558,
            "url": "http://netbox/api/ipam/ip-addresses/19558/",
            "display": "192.168.22.1/24",
            "address": "192.168.22.1/24",
            "status": {
                "value": "active",
                "label": "Active"
            },
            "assigned_object_type": "dcim.interface",
            "assigned_object_id": 107126,
            "assigned_object": {
                "id": 107126,
                "url": "http://netbox/api/dcim/interfaces/107126/",
                "display": "FastEthernet0/1",
                "device": {
                    "id": 6378,
                    "url": "http://netbox/api/dcim/devices/6378/",
                    "display": "Dept-70",
                    "name": "Dept-70",
                    "display_name": "Dept-70"
                },
                "name": "FastEthernet0/1"
            },
            "dns_name": ""
        },
        {
            "id": 19558,
            "url": "http://netbox/api/ipam/ip-addresses/19558/",
            "display": "192.168.30.1/24",
            "address": "192.168.30.1/24",
            "status": {
                "value": "active",
                "label": "Active"
            },
            "assigned_object_type": "dcim.interface",
            "assigned_object_id": 107126,
            "assigned_object": {
                "id": 107126,
                "url": "http://netbox/api/dcim/interfaces/107126/",
                "display": "FastEthernet0/1",
                "device": {
                    "id": 6378,
                    "url": "http://netbox/api/dcim/devices/6378/",
                    "display": "Dept-70",
                    "name": "Dept-70",
                    "display_name": "Dept-70"
                },
                "name": "FastEthernet0/1"
            },
            "dns_name": ""
        },
        {
            "id": 19558,
            "url": "http://netbox/api/ipam/ip-addresses/19558/",
            "display": "192.168.31.1/24",
            "address": "192.168.31.1/24",
            "status": {
                "value": "active",
                "label": "Active"
            },
            "assigned_object_type": "dcim.interface",
            "assigned_object_id": 107126,
            "assigned_object": {
                "id": 107126,
                "url": "http://netbox/api/dcim/interfaces/107126/",
                "display": "FastEthernet0/1",
                "device": {
                    "id": 6378,
                    "url": "http://netbox/api/dcim/devices/6378/",
                    "display": "Dept-70",
                    "name": "Dept-70",
                    "display_name": "Dept-70"
                },
                "name": "FastEthernet0/1"
            },
            "dns_name": ""
        },
        {
            "id": 19558,
            "url": "http://netbox/api/ipam/ip-addresses/19558/",
            "display": "192.168.35.1/24",
            "address": "192.168.35.1/24",
            "status": {
                "value": "active",
                "label": "Active"
            },
            "assigned_object_type": "dcim.interface",
            "assigned_object_id": 107126,
            "assigned_object": {
                "id": 107126,
                "url": "http://netbox/api/dcim/interfaces/107126/",
                "display": "FastEthernet0/1",
                "device": {
                    "id": 6378,
                    "url": "http://netbox/api/dcim/devices/6378/",
                    "display": "Dept-70",
                    "name": "Dept-70",
                    "display_name": "Dept-70"
                },
                "name": "FastEthernet0/1"
            },
            "dns_name": ""
        },
        {
            "id": 19558,
            "url": "http://netbox/api/ipam/ip-addresses/19558/",
            "display": "192.168.49.1/24",
            "address": "192.168.49.1/24",
            "status": {
                "value": "active",
                "label": "Active"
            },
            "assigned_object_type": "dcim.interface",
            "assigned_object_id": 107126,
            "assigned_object": {
                "id": 107126,
                "url": "http://netbox/api/dcim/interfaces/107126/",
                "display": "FastEthernet0/1",
                "device": {
                    "id": 6378,
                    "url": "http://netbox/api/dcim/devices/6378/",
                    "display": "Dept-70",
                    "name": "Dept-70",
                    "display_name": "Dept-70"
                },
                "name": "FastEthernet0/1"
            },
            "dns_name": ""
        },
        {
            "id": 19558,
            "url": "http://netbox/api/ipam/ip-addresses/19558/",
            "display": "192.168.51.1/24",
            "address": "192.168.51.1/24",
            "status": {
                "value": "active",
                "label": "Active"
            },
            "assigned_object_type": "dcim.interface",
            "assigned_object_id": 107126,
            "assigned_object": {
                "id": 107126,
                "url": "http://netbox/api/dcim/interfaces/107126/",
                "display": "FastEthernet0/1",
                "device": {
                    "id": 6378,
                    "url": "http://netbox/api/dcim/devices/6378/",
                    "display": "Dept-70",
                    "name": "Dept-70",
                    "display_name": "Dept-70"
                },
                "name": "FastEthernet0/1"
            },
            "dns_name": ""
        },
        {
            "id": 19558,
            "url": "http://netbox/api/ipam/ip-addresses/19558/",
            "display": "192.168.52.1/24",
            "address": "192.168.52.1/24",
            "status": {
                "value": "active",
                "label": "Active"
            },
            "assigned_object_type": "dcim.interface",
            "assigned_object_id": 107126,
            "assigned_object": {
                "id": 107126,
                "url": "http://netbox/api/dcim/interfaces/107126/",
                "display": "FastEthernet0/1",
                "device": {
                    "id": 6378,
                    "url": "http://netbox/api/dcim/devices/6378/",
                    "display": "Dept-70",
                    "name": "Dept-70",
                    "display_name": "Dept-70"
                },
                "name": "FastEthernet0/1"
            },
            "dns_name": ""
        },
        {
            "id": 19558,
            "url": "http://netbox/api/ipam/ip-addresses/19558/",
            "display": "192.168.90.1/24",
            "address": "192.168.90.1/24",
            "status": {
                "value": "active",
                "label": "Active"
            },
            "assigned_object_type": "dcim.interface",
            "assigned_object_id": 107126,
            "assigned_object": {
                "id": 107126,
                "url": "http://netbox/api/dcim/interfaces/107126/",
                "display": "FastEthernet0/1",
                "device": {
                    "id": 6378,
                    "url": "http://netbox/api/dcim/devices/6378/",
                    "display": "Dept-70",
                    "name": "Dept-70",
                    "display_name": "Dept-70"
                },
                "name": "FastEthernet0/1"
            },
            "dns_name": ""
        },
        {
            "id": 19558,
            "url": "http://netbox/api/ipam/ip-addresses/19558/",
            "display": "192.168.94.1/24",
            "address": "192.168.94.1/24",
            "status": {
                "value": "active",
                "label": "Active"
            },
            "assigned_object_type": "dcim.interface",
            "assigned_object_id": 107126,
            "assigned_object": {
                "id": 107126,
                "url": "http://netbox/api/dcim/interfaces/107126/",
                "display": "FastEthernet0/1",
                "device": {
                    "id": 6378,
                    "url": "http://netbox/api/dcim/devices/6378/",
                    "display": "Dept-70",
                    "name": "Dept-70",
                    "display_name": "Dept-70"
                },
                "name": "FastEthernet0/1"
            },
            "dns_name": ""
        },
        {
            "id": 19558,
            "url": "http://netbox/api/ipam/ip-addresses/19558/",
            "display": "192.168.96.1/24",
            "address": "192.168.96.1/24",
            "status": {
                "value": "active",
                "label": "Active"
            },
            "assigned_object_type": "dcim.interface",
            "assigned_object_id": 107126,
            "assigned_object": {
                "id": 107126,
                "url": "http://netbox/api/dcim/interfaces/107126/",
                "display": "FastEthernet0/1",
                "device": {
                    "id": 6378,
                    "url": "http://netbox/api/dcim/devices/6378/",
                    "display": "Dept-70",
                    "name": "Dept-70",
                    "display_name": "Dept-70"
                },
                "name": "FastEthernet0/1"
            },
            "dns_name": ""
        },
        {
            "id": 19558,
            "url": "http://netbox/api/ipam/ip-addresses/19558/",
            "display": "192.168.97.1/24",
            "address": "192.168.97.1/24",
            "status": {
                "value": "active",
                "label": "Active"
            },
            "assigned_object_type": "dcim.interface",
            "assigned_object_id": 107126,
            "assigned_object": {
                "id": 107126,
                "url": "http://netbox/api/dcim/interfaces/107126/",
                "display": "FastEthernet0/1",
                "device": {
                    "id": 6378,
                    "url": "http://netbox/api/dcim/devices/6378/",
                    "display": "Dept-70",
                    "name": "Dept-70",
                    "display_name": "Dept-70"
                },
                "name": "FastEthernet0/1"
            },
            "dns_name": ""
        },
        {
            "id": 19558,
            "url": "http://netbox/api/ipam/ip-addresses/19558/",
            "display": "192.168.121.1/24",
            "address": "192.168.121.1/24",
            "status": {
                "value": "active",
                "label": "Active"
            },
            "assigned_object_type": "dcim.interface",
            "assigned_object_id": 107126,
            "assigned_object": {
                "id": 107126,
                "url": "http://netbox/api/dcim/interfaces/107126/",
                "display": "FastEthernet0/1",
                "device": {
                    "id": 6378,
                    "url": "http://netbox/api/dcim/devices/6378/",
                    "display": "Dept-70",
                    "name": "Dept-70",
                    "display_name": "Dept-70"
                },
                "name": "FastEthernet0/1"
            },
            "dns_name": ""
        },
        {
            "id": 19558,
            "url": "http://netbox/api/ipam/ip-addresses/19558/",
            "display": "192.168.123.1/24",
            "address": "192.168.123.1/24",
            "status": {
                "value": "active",
                "label": "Active"
            },
            "assigned_object_type": "dcim.interface",
            "assigned_object_id": 107126,
            "assigned_object": {
                "id": 107126,
                "url": "http://netbox/api/dcim/interfaces/107126/",
                "display": "FastEthernet0/1",
                "device": {
                    "id": 6378,
                    "url": "http://netbox/api/dcim/devices/6378/",
                    "display": "Dept-70",
                    "name": "Dept-70",
                    "display_name": "Dept-70"
                },
                "name": "FastEthernet0/1"
            },
            "dns_name": ""
        },
        {
            "id": 19558,
            "url": "http://netbox/api/ipam/ip-addresses/19558/",
            "display": "192.168.134.1/24",
            "address": "192.168.134.1/24",
            "status": {
                "value": "active",
                "label": "Active"
            },
            "assigned_object_type": "dcim.interface",
            "assigned_object_id": 107126,
            "assigned_object": {
                "id": 107126,
                "url": "http://netbox/api/dcim/interfaces/107126/",
                "display": "FastEthernet0/1",
                "device": {
                    "id": 6378,
                    "url": "http://netbox/api/dcim/devices/6378/",
                    "display": "Dept-70",
                    "name": "Dept-70",
                    "display_name": "Dept-70"
                },
                "name": "FastEthernet0/1"
            },
            "dns_name": ""
        },
        {
            "id": 19558,
            "url": "http://netbox/api/ipam/ip-addresses/19558/",
            "display": "192.168.168.1/24",
            "address": "192.168.168.1/24",
            "status": {
                "value": "active",
                "label": "Active"
            },
            "assigned_object_type": "dcim.interface",
            "assigned_object_id": 107126,
            "assigned_object": {
                "id": 107126,
                "url": "http://netbox/api/dcim/interfaces/107126/",
                "display": "FastEthernet0/1",
                "device": {
                    "id": 6378,
                    "url": "http://netbox/api/dcim/devices/6378/",
                    "display": "Dept-70",
                    "name": "Dept-70",
                    "display_name": "Dept-70"
                },
                "name": "FastEthernet0/1"
            },
            "dns_name": ""
        },
        {
            "id": 19558,
            "url": "http://netbox/api/ipam/ip-addresses/19558/",
            "display": "192.168.200.1/24",
            "address": "192.168.200.1/24",
            "status": {
                "value": "active",
                "label": "Active"
            },
            "assigned_object_type": "dcim.interface",
            "assigned_object_id": 107126,
            "assigned_object": {
                "id": 107126,
                "url": "http://netbox/api/dcim/interfaces/107126/",
                "display": "FastEthernet0/1",
                "device": {
                    "id": 6378,
                    "url": "http://netbox/api/dcim/devices/6378/",
                    "display": "Dept-70",
                    "name": "Dept-70",
                    "display_name": "Dept-70"
                },
                "name": "FastEthernet0/1"
            },
            "dns_name": ""
        },
        {
            "id": 19558,
            "url": "http://netbox/api/ipam/ip-addresses/19558/",
            "display": "192.168.244.1/24",
            "address": "192.168.244.1/24",
            "status": {
                "value": "active",
                "label": "Active"
            },
            "assigned_object_type": "dcim.interface",
            "assigned_object_id": 107126,
            "assigned_object": {
                "id": 107126,
                "url": "http://netbox/api/dcim/interfaces/107126/",
                "display": "FastEthernet0/1",
                "device": {
                    "id": 6378,
                    "url": "http://netbox/api/dcim/devices/6378/",
                    "display": "Dept-70",
                    "name": "Dept-70",
                    "display_name": "Dept-70"
                },
                "name": "FastEthernet0/1"
            },
            "dns_name": ""
        },
        {
            "id": 19558,
            "url": "http://netbox/api/ipam/ip-addresses/19558/",
            "display": "192.168.253.1/24",
            "address": "192.168.253.1/24",
            "status": {
                "value": "active",
                "label": "Active"
            },
            "assigned_object_type": "dcim.interface",
            "assigned_object_id": 107126,
            "assigned_object": {
                "id": 107126,
                "url": "http://netbox/api/dcim/interfaces/107126/",
                "display": "FastEthernet0/1",
                "device": {
                    "id": 6378,
                    "url": "http://netbox/api/dcim/devices/6378/",
                    "display": "Dept-70",
                    "name": "Dept-70",
                    "display_name": "Dept-70"
                },
                "name": "FastEthernet0/1"
            },
            "dns_name": ""
        },
        {
            "id": 19558,
            "url": "http://netbox/api/ipam/ip-addresses/19558/",
            "display": "192.168.254.1/24",
            "address": "192.168.254.1/24",
            "status": {
                "value": "active",
                "label": "Active"
            },
            "assigned_object_type": "dcim.interface",
            "assigned_object_id": 107126,
            "assigned_object": {
                "id": 107126,
                "url": "http://netbox/api/dcim/interfaces/107126/",
                "display": "FastEthernet0/1",
                "device": {
                    "id": 6378,
                    "url": "http://netbox/api/dcim/devices/6378/",
                    "display": "Dept-70",
                    "name": "Dept-70",
                    "display_name": "Dept-70"
                },
                "name": "FastEthernet0/1"
            },
            "dns_name": ""
        },
        {
            "id": 19558,
            "url": "http://netbox/api/ipam/ip-addresses/19558/",
            "display": "192.168.251.1/24",
            "address": "192.168.251.1/24",
            "status": {
                "value": "active",
                "label": "Active"
            },
            "assigned_object_type": "dcim.interface",
            "assigned_object_id": 107126,
            "assigned_object": {
                "id": 107126,
                "url": "http://netbox/api/dcim/interfaces/107126/",
                "display": "FastEthernet0/1",
                "device": {
                    "id": 6378,
                    "url": "http://netbox/api/dcim/devices/6378/",
                    "display": "Dept-70",
                    "name": "Dept-70",
                    "display_name": "Dept-70"
                },
                "name": "FastEthernet0/1"
            },
            "dns_name": ""
        },
        {
            "id": 19558,
            "url": "http://netbox/api/ipam/ip-addresses/19558/",
            "display": "192.168.252.1/24",
            "address": "192.168.252.1/24",
            "status": {
                "value": "active",
                "label": "Active"
            },
            "assigned_object_type": "dcim.interface",
            "assigned_object_id": 107126,
            "assigned_object": {
                "id": 107126,
                "url": "http://netbox/api/dcim/interfaces/107126/",
                "display": "FastEthernet0/1",
                "device": {
                    "id": 6378,
                    "url": "http://netbox/api/dcim/devices/6378/",
                    "display": "Dept-70",
                    "name": "Dept-70",
                    "display_name": "Dept-70"
                },
                "name": "FastEthernet0/1"
            },
            "dns_name": ""
        },
        {
            "id": 19558,
            "url": "http://netbox/api/ipam/ip-addresses/19558/",
            "display": "192.168.253.1/24",
            "address": "192.168.253.1/24",
            "status": {
                "value": "active",
                "label": "Active"
            },
            "assigned_object_type": "dcim.interface",
            "assigned_object_id": 107126,
            "assigned_object": {
                "id": 107126,
                "url": "http://netbox/api/dcim/interfaces/107126/",
                "display": "FastEthernet0/1",
                "device": {
                    "id": 6378,
                    "url": "http://netbox/api/dcim/devices/6378/",
                    "display": "Dept-70",
                    "name": "Dept-70",
                    "display_name": "Dept-70"
                },
                "name": "FastEthernet0/1"
            },
            "dns_name": ""
        }

  ]
}